%YAML 1.1
%TAG !u! tag:unity3d.com,2011:
--- !u!1001 &5816532543734896736
PrefabInstance:
  m_ObjectHideFlags: 0
  serializedVersion: 2
  m_Modification:
    m_TransformParent: {fileID: 0}
    m_Modifications:
    - target: {fileID: 8520004949159480306, guid: c6e4a79e8eb2e4c93bf7b01e75bc5b7e, type: 3}
      propertyPath: m_Name
      value: PlaneHOME
      objectReference: {fileID: 0}
    - target: {fileID: 8520004949159480310, guid: c6e4a79e8eb2e4c93bf7b01e75bc5b7e, type: 3}
      propertyPath: m_RootOrder
      value: 0
      objectReference: {fileID: 0}
    - target: {fileID: 8520004949159480310, guid: c6e4a79e8eb2e4c93bf7b01e75bc5b7e, type: 3}
      propertyPath: m_LocalScale.x
      value: 0.2
      objectReference: {fileID: 0}
    - target: {fileID: 8520004949159480310, guid: c6e4a79e8eb2e4c93bf7b01e75bc5b7e, type: 3}
      propertyPath: m_LocalScale.y
      value: 0.01
      objectReference: {fileID: 0}
    - target: {fileID: 8520004949159480310, guid: c6e4a79e8eb2e4c93bf7b01e75bc5b7e, type: 3}
      propertyPath: m_LocalScale.z
      value: 0.2
      objectReference: {fileID: 0}
    - target: {fileID: 8520004949159480310, guid: c6e4a79e8eb2e4c93bf7b01e75bc5b7e, type: 3}
      propertyPath: m_LocalPosition.x
      value: 0
      objectReference: {fileID: 0}
    - target: {fileID: 8520004949159480310, guid: c6e4a79e8eb2e4c93bf7b01e75bc5b7e, type: 3}
      propertyPath: m_LocalPosition.y
      value: 0
      objectReference: {fileID: 0}
    - target: {fileID: 8520004949159480310, guid: c6e4a79e8eb2e4c93bf7b01e75bc5b7e, type: 3}
      propertyPath: m_LocalPosition.z
      value: 0
      objectReference: {fileID: 0}
    - target: {fileID: 8520004949159480310, guid: c6e4a79e8eb2e4c93bf7b01e75bc5b7e, type: 3}
      propertyPath: m_LocalRotation.w
      value: 1
      objectReference: {fileID: 0}
    - target: {fileID: 8520004949159480310, guid: c6e4a79e8eb2e4c93bf7b01e75bc5b7e, type: 3}
      propertyPath: m_LocalRotation.x
      value: 0
      objectReference: {fileID: 0}
    - target: {fileID: 8520004949159480310, guid: c6e4a79e8eb2e4c93bf7b01e75bc5b7e, type: 3}
      propertyPath: m_LocalRotation.y
      value: 0
      objectReference: {fileID: 0}
    - target: {fileID: 8520004949159480310, guid: c6e4a79e8eb2e4c93bf7b01e75bc5b7e, type: 3}
      propertyPath: m_LocalRotation.z
      value: 0
      objectReference: {fileID: 0}
    - target: {fileID: 8520004949159480310, guid: c6e4a79e8eb2e4c93bf7b01e75bc5b7e, type: 3}
      propertyPath: m_LocalEulerAnglesHint.x
      value: 0
      objectReference: {fileID: 0}
    - target: {fileID: 8520004949159480310, guid: c6e4a79e8eb2e4c93bf7b01e75bc5b7e, type: 3}
      propertyPath: m_LocalEulerAnglesHint.y
      value: 0
      objectReference: {fileID: 0}
    - target: {fileID: 8520004949159480310, guid: c6e4a79e8eb2e4c93bf7b01e75bc5b7e, type: 3}
      propertyPath: m_LocalEulerAnglesHint.z
      value: 0
      objectReference: {fileID: 0}
    m_RemovedComponents: []
  m_SourcePrefab: {fileID: 100100000, guid: c6e4a79e8eb2e4c93bf7b01e75bc5b7e, type: 3}
