%YAML 1.1
%TAG !u! tag:unity3d.com,2011:
--- !u!1 &6578588555677729205
GameObject:
  m_ObjectHideFlags: 0
  m_CorrespondingSourceObject: {fileID: 0}
  m_PrefabInstance: {fileID: 0}
  m_PrefabAsset: {fileID: 0}
  serializedVersion: 6
  m_Component:
  - component: {fileID: 9217482457010507027}
  m_Layer: 0
  m_Name: Coin-Art-Pref
  m_TagString: Untagged
  m_Icon: {fileID: 0}
  m_NavMeshLayer: 0
  m_StaticEditorFlags: 0
  m_IsActive: 1
--- !u!4 &9217482457010507027
Transform:
  m_ObjectHideFlags: 0
  m_CorrespondingSourceObject: {fileID: 0}
  m_PrefabInstance: {fileID: 0}
  m_PrefabAsset: {fileID: 0}
  m_GameObject: {fileID: 6578588555677729205}
  m_LocalRotation: {x: 0, y: 0, z: 0, w: 1}
  m_LocalPosition: {x: 0, y: 0, z: 0}
  m_LocalScale: {x: 1, y: 1, z: 1}
  m_Children:
  - {fileID: 6840051586950436292}
  - {fileID: 8209482551149426822}
  m_Father: {fileID: 0}
  m_RootOrder: 0
  m_LocalEulerAnglesHint: {x: 0, y: 0, z: 0}
--- !u!1001 &128301543128469978
PrefabInstance:
  m_ObjectHideFlags: 0
  serializedVersion: 2
  m_Modification:
    m_TransformParent: {fileID: 9217482457010507027}
    m_Modifications:
    - target: {fileID: 8082309249097132377, guid: 7687c514cac58b947a9e7796c86ef794, type: 3}
      propertyPath: m_Name
      value: Particle System_2
      objectReference: {fileID: 0}
    - target: {fileID: 8082309249097132380, guid: 7687c514cac58b947a9e7796c86ef794, type: 3}
      propertyPath: m_RootOrder
      value: 1
      objectReference: {fileID: 0}
    - target: {fileID: 8082309249097132380, guid: 7687c514cac58b947a9e7796c86ef794, type: 3}
      propertyPath: m_LocalScale.y
      value: 150.00003
      objectReference: {fileID: 0}
    - target: {fileID: 8082309249097132380, guid: 7687c514cac58b947a9e7796c86ef794, type: 3}
      propertyPath: m_LocalScale.z
      value: 100.00004
      objectReference: {fileID: 0}
    - target: {fileID: 8082309249097132380, guid: 7687c514cac58b947a9e7796c86ef794, type: 3}
      propertyPath: m_LocalPosition.x
      value: 0
      objectReference: {fileID: 0}
    - target: {fileID: 8082309249097132380, guid: 7687c514cac58b947a9e7796c86ef794, type: 3}
      propertyPath: m_LocalPosition.y
      value: 0
      objectReference: {fileID: 0}
    - target: {fileID: 8082309249097132380, guid: 7687c514cac58b947a9e7796c86ef794, type: 3}
      propertyPath: m_LocalPosition.z
      value: 0
      objectReference: {fileID: 0}
    - target: {fileID: 8082309249097132380, guid: 7687c514cac58b947a9e7796c86ef794, type: 3}
      propertyPath: m_LocalRotation.w
      value: 0.7071068
      objectReference: {fileID: 0}
    - target: {fileID: 8082309249097132380, guid: 7687c514cac58b947a9e7796c86ef794, type: 3}
      propertyPath: m_LocalRotation.x
      value: -0.7071068
      objectReference: {fileID: 0}
    - target: {fileID: 8082309249097132380, guid: 7687c514cac58b947a9e7796c86ef794, type: 3}
      propertyPath: m_LocalRotation.y
      value: -0
      objectReference: {fileID: 0}
    - target: {fileID: 8082309249097132380, guid: 7687c514cac58b947a9e7796c86ef794, type: 3}
      propertyPath: m_LocalRotation.z
      value: -0
      objectReference: {fileID: 0}
    - target: {fileID: 8082309249097132380, guid: 7687c514cac58b947a9e7796c86ef794, type: 3}
      propertyPath: m_LocalEulerAnglesHint.x
      value: -90
      objectReference: {fileID: 0}
    - target: {fileID: 8082309249097132380, guid: 7687c514cac58b947a9e7796c86ef794, type: 3}
      propertyPath: m_LocalEulerAnglesHint.y
      value: 0
      objectReference: {fileID: 0}
    - target: {fileID: 8082309249097132380, guid: 7687c514cac58b947a9e7796c86ef794, type: 3}
      propertyPath: m_LocalEulerAnglesHint.z
      value: 0
      objectReference: {fileID: 0}
    m_RemovedComponents: []
  m_SourcePrefab: {fileID: 100100000, guid: 7687c514cac58b947a9e7796c86ef794, type: 3}
--- !u!4 &8209482551149426822 stripped
Transform:
  m_CorrespondingSourceObject: {fileID: 8082309249097132380, guid: 7687c514cac58b947a9e7796c86ef794, type: 3}
  m_PrefabInstance: {fileID: 128301543128469978}
  m_PrefabAsset: {fileID: 0}
--- !u!1001 &5740212803765701297
PrefabInstance:
  m_ObjectHideFlags: 0
  serializedVersion: 2
  m_Modification:
    m_TransformParent: {fileID: 9217482457010507027}
    m_Modifications:
    - target: {fileID: 1244659859943432053, guid: ba803c08b8cd11d42a5603d8af79a542, type: 3}
      propertyPath: m_RootOrder
      value: 0
      objectReference: {fileID: 0}
    - target: {fileID: 1244659859943432053, guid: ba803c08b8cd11d42a5603d8af79a542, type: 3}
      propertyPath: m_LocalPosition.x
      value: 0
      objectReference: {fileID: 0}
    - target: {fileID: 1244659859943432053, guid: ba803c08b8cd11d42a5603d8af79a542, type: 3}
      propertyPath: m_LocalPosition.y
      value: 0
      objectReference: {fileID: 0}
    - target: {fileID: 1244659859943432053, guid: ba803c08b8cd11d42a5603d8af79a542, type: 3}
      propertyPath: m_LocalPosition.z
      value: 0
      objectReference: {fileID: 0}
    - target: {fileID: 1244659859943432053, guid: ba803c08b8cd11d42a5603d8af79a542, type: 3}
      propertyPath: m_LocalRotation.w
      value: 1
      objectReference: {fileID: 0}
    - target: {fileID: 1244659859943432053, guid: ba803c08b8cd11d42a5603d8af79a542, type: 3}
      propertyPath: m_LocalRotation.x
      value: 0.000000021855694
      objectReference: {fileID: 0}
    - target: {fileID: 1244659859943432053, guid: ba803c08b8cd11d42a5603d8af79a542, type: 3}
      propertyPath: m_LocalRotation.y
      value: -0
      objectReference: {fileID: 0}
    - target: {fileID: 1244659859943432053, guid: ba803c08b8cd11d42a5603d8af79a542, type: 3}
      propertyPath: m_LocalRotation.z
      value: -0
      objectReference: {fileID: 0}
    - target: {fileID: 1244659859943432053, guid: ba803c08b8cd11d42a5603d8af79a542, type: 3}
      propertyPath: m_LocalEulerAnglesHint.x
      value: 0
      objectReference: {fileID: 0}
    - target: {fileID: 1244659859943432053, guid: ba803c08b8cd11d42a5603d8af79a542, type: 3}
      propertyPath: m_LocalEulerAnglesHint.y
      value: 0
      objectReference: {fileID: 0}
    - target: {fileID: 1244659859943432053, guid: ba803c08b8cd11d42a5603d8af79a542, type: 3}
      propertyPath: m_LocalEulerAnglesHint.z
      value: 0
      objectReference: {fileID: 0}
    - target: {fileID: 1877503106651899343, guid: ba803c08b8cd11d42a5603d8af79a542, type: 3}
      propertyPath: m_Name
      value: Coin-Art-Model
      objectReference: {fileID: 0}
    m_RemovedComponents: []
  m_SourcePrefab: {fileID: 100100000, guid: ba803c08b8cd11d42a5603d8af79a542, type: 3}
--- !u!4 &6840051586950436292 stripped
Transform:
  m_CorrespondingSourceObject: {fileID: 1244659859943432053, guid: ba803c08b8cd11d42a5603d8af79a542, type: 3}
  m_PrefabInstance: {fileID: 5740212803765701297}
  m_PrefabAsset: {fileID: 0}
