%YAML 1.1
%TAG !u! tag:unity3d.com,2011:
--- !u!1045 &1
EditorBuildSettings:
  m_ObjectHideFlags: 0
  serializedVersion: 2
  m_Scenes:
  - enabled: 0
    path: Assets/Scenes/ARMainGameJONATHAN.unity
    guid: 387e96800940347c2a5065cf68baff79
  - enabled: 1
    path: Assets/Scenes/(1)StartScene.unity
    guid: 2cda990e2423bbf4892e6590ba056729
  - enabled: 1
    path: Assets/Scenes/SceneName.unity
    guid: d9c6ed0f8e04f2741a1ea32c8f5f68e0
  - enabled: 1
    path: Assets/Scenes/WarningS.unity
    guid: 274232fc0bc8c5a47bcd6266994a869b
  - enabled: 1
    path: Assets/Scenes/Starting.unity
    guid: 04dad80ebed1b5f46a1a35e82124b59a
  - enabled: 1
    path: Assets/Scenes/ChoosePath.unity
    guid: e6063557fa8505d4abd47711dd5c488f
  - enabled: 1
    path: Assets/Scenes/(1)StartScene.unity
    guid: 2cda990e2423bbf4892e6590ba056729
  - enabled: 0
    path: 
    guid: 00000000000000000000000000000000
  - enabled: 1
    path: Assets/Scenes/ChosenPath.unity
    guid: 51761bfdb7eff46f988146a8a7f3a688
  - enabled: 1
    path: Assets/Scenes/ARMainGame.unity
    guid: 86f95742418f6394baa3b39ae18d1955
  - enabled: 1
    path: Assets/Scenes/Quiz_OLD.unity
    guid: f322063c4b9e73f4b9b388d623ff4e96
  - enabled: 1
    path: Assets/Scenes/ARDescription.unity
    guid: 63ba34a49cf924df89f7fdd25494aa76
  - enabled: 1
    path: Assets/Scenes/QuizNew.unity
    guid: a22948069670c0843ab68cc92274f764
  - enabled: 1
    path: Assets/Scenes/(1)StartScene.unity
    guid: 2cda990e2423bbf4892e6590ba056729
  - enabled: 1
    path: Assets/Scenes/SceneName.unity
    guid: d9c6ed0f8e04f2741a1ea32c8f5f68e0
  - enabled: 1
    path: Assets/Scenes/WarningS.unity
    guid: 274232fc0bc8c5a47bcd6266994a869b
  - enabled: 1
    path: Assets/Scenes/ChoosePath.unity
    guid: e6063557fa8505d4abd47711dd5c488f
  - enabled: 0
    path: 
    guid: 00000000000000000000000000000000
  - enabled: 1
    path: Assets/Scenes/ChosenPath.unity
    guid: 51761bfdb7eff46f988146a8a7f3a688
  - enabled: 1
    path: Assets/Scenes/3DMap_OLD.unity
    guid: 5d934ce4cbd6499469425229b573bebb
  - enabled: 1
    path: Assets/Scenes/EndofGame.unity
    guid: d5c1994c5421bdf4dab317625e887ee0
  - enabled: 1
    path: Assets/Scenes/ARMainGame.unity
    guid: 86f95742418f6394baa3b39ae18d1955
  - enabled: 1
    path: Assets/Scenes/ChoosePathClosed.unity
    guid: 3b0e6d30dcdebd6419dca246c25bfd0b
  - enabled: 1
    path: Assets/Scenes/ARInfoPoints.unity
    guid: 576b77ab057804f4087797d4c46347b9
  - enabled: 1
    path: Assets/Scenes/2ChosenPath.unity
    guid: 0acf4b37ef50d7947ab8788f390e1a32
  - enabled: 1
    path: Assets/Scenes/Quitsure.unity
    guid: b1b82aa11a8ffc841909ec04041ba20e
  m_configObjects:
    UnityEditor.XR.ARCore.ARCoreSettings: {fileID: 11400000, guid: 5af7f2f5d2cd2d64a8323e7b8ebbdf4b, type: 2}
    UnityEditor.XR.ARKit.ARKitSettings: {fileID: 11400000, guid: ffa1185fe58ff0946b6d59f7dfcee8d5, type: 2}
    com.unity.xr.management.loader_settings: {fileID: 11400000, guid: 196e228088df84361b29f0ef8b8395fe, type: 2}
