%YAML 1.1
%TAG !u! tag:unity3d.com,2011:
--- !u!1001 &4517196167640531418
PrefabInstance:
  m_ObjectHideFlags: 0
  serializedVersion: 2
  m_Modification:
    m_TransformParent: {fileID: 0}
    m_Modifications:
    - target: {fileID: 150369629977565712, guid: 43092d8d602754f3baa8efd8dacaec14,
        type: 3}
      propertyPath: m_Materials.Array.data[0]
      value: 
      objectReference: {fileID: 2100000, guid: ecaa44341ef424c5dad685af054ba802, type: 2}
    - target: {fileID: 903327740587970892, guid: 43092d8d602754f3baa8efd8dacaec14,
        type: 3}
      propertyPath: m_Name
      value: GPSWayPoint Variant
      objectReference: {fileID: 0}
    - target: {fileID: 1580424108378416303, guid: 43092d8d602754f3baa8efd8dacaec14,
        type: 3}
      propertyPath: m_RootOrder
      value: 0
      objectReference: {fileID: 0}
    - target: {fileID: 1580424108378416303, guid: 43092d8d602754f3baa8efd8dacaec14,
        type: 3}
      propertyPath: m_LocalScale.x
      value: 0.5
      objectReference: {fileID: 0}
    - target: {fileID: 1580424108378416303, guid: 43092d8d602754f3baa8efd8dacaec14,
        type: 3}
      propertyPath: m_LocalScale.y
      value: 1
      objectReference: {fileID: 0}
    - target: {fileID: 1580424108378416303, guid: 43092d8d602754f3baa8efd8dacaec14,
        type: 3}
      propertyPath: m_LocalScale.z
      value: 0.5
      objectReference: {fileID: 0}
    - target: {fileID: 1580424108378416303, guid: 43092d8d602754f3baa8efd8dacaec14,
        type: 3}
      propertyPath: m_LocalPosition.x
      value: 0
      objectReference: {fileID: 0}
    - target: {fileID: 1580424108378416303, guid: 43092d8d602754f3baa8efd8dacaec14,
        type: 3}
      propertyPath: m_LocalPosition.y
      value: 0.455
      objectReference: {fileID: 0}
    - target: {fileID: 1580424108378416303, guid: 43092d8d602754f3baa8efd8dacaec14,
        type: 3}
      propertyPath: m_LocalPosition.z
      value: 4
      objectReference: {fileID: 0}
    - target: {fileID: 1580424108378416303, guid: 43092d8d602754f3baa8efd8dacaec14,
        type: 3}
      propertyPath: m_LocalRotation.w
      value: 1
      objectReference: {fileID: 0}
    - target: {fileID: 1580424108378416303, guid: 43092d8d602754f3baa8efd8dacaec14,
        type: 3}
      propertyPath: m_LocalRotation.x
      value: 0
      objectReference: {fileID: 0}
    - target: {fileID: 1580424108378416303, guid: 43092d8d602754f3baa8efd8dacaec14,
        type: 3}
      propertyPath: m_LocalRotation.y
      value: 0
      objectReference: {fileID: 0}
    - target: {fileID: 1580424108378416303, guid: 43092d8d602754f3baa8efd8dacaec14,
        type: 3}
      propertyPath: m_LocalRotation.z
      value: 0
      objectReference: {fileID: 0}
    - target: {fileID: 1580424108378416303, guid: 43092d8d602754f3baa8efd8dacaec14,
        type: 3}
      propertyPath: m_LocalEulerAnglesHint.x
      value: 0
      objectReference: {fileID: 0}
    - target: {fileID: 1580424108378416303, guid: 43092d8d602754f3baa8efd8dacaec14,
        type: 3}
      propertyPath: m_LocalEulerAnglesHint.y
      value: 0
      objectReference: {fileID: 0}
    - target: {fileID: 1580424108378416303, guid: 43092d8d602754f3baa8efd8dacaec14,
        type: 3}
      propertyPath: m_LocalEulerAnglesHint.z
      value: 0
      objectReference: {fileID: 0}
    m_RemovedComponents: []
  m_SourcePrefab: {fileID: 100100000, guid: 43092d8d602754f3baa8efd8dacaec14, type: 3}
